<svg width="213" height="52" viewBox="0 0 213 52" fill="none" xmlns="http://www.w3.org/2000/svg">
<path d="M70.5296 13.7912C70.0011 13.7912 69.59 13.938 69.2964 14.2023C69.0028 14.4959 68.856 14.8776 68.856 15.3474C68.856 15.8172 69.0028 16.1989 69.2964 16.4926C69.59 16.7862 70.0011 16.933 70.5296 16.933H75.7269V32.2604C75.7269 32.789 75.8737 33.2294 76.1673 33.5524C76.4609 33.9048 76.9014 34.0516 77.4886 34.0516C78.0465 34.0516 78.487 33.9048 78.7806 33.5524C79.0742 33.2294 79.2504 32.789 79.2504 32.2604V16.933H84.4476C84.9762 16.933 85.3873 16.7862 85.6809 16.4926C85.9745 16.1989 86.1507 15.8172 86.1507 15.3474C86.1507 14.8776 85.9745 14.4959 85.6809 14.2023C85.3873 13.938 84.9762 13.7912 84.4476 13.7912H70.5296Z" fill="#2B415B"/>
<path d="M86.414 32.3485C86.414 32.8477 86.5315 33.2588 86.8251 33.5818C87.1188 33.9048 87.5298 34.0516 88.0584 34.0516C88.5869 34.0516 88.998 33.9048 89.2916 33.5818C89.5852 33.2588 89.732 32.8477 89.732 32.3485V27.3862C89.732 24.0388 90.5542 22.3651 92.2573 22.3651C92.639 22.3651 93.1088 22.4532 93.6373 22.6294C94.5182 22.9524 95.1348 22.7469 95.4872 21.9834C95.7514 21.3962 95.6634 20.8089 95.1935 20.2217C94.7237 19.6638 93.9309 19.3701 92.8152 19.3701C92.1692 19.3701 91.5525 19.5463 91.024 19.8987C90.4661 20.251 90.0257 20.6915 89.732 21.2494C89.732 20.8383 89.5852 20.4859 89.2916 20.1629C88.998 19.8399 88.5869 19.6638 88.0584 19.6638C87.5298 19.6638 87.1188 19.8399 86.8251 20.1629C86.5315 20.4859 86.414 20.897 86.414 21.3668V32.3485Z" fill="#2B415B"/>
<path d="M104.726 32.3485C104.726 32.8477 104.843 33.2588 105.107 33.5818C105.372 33.9048 105.783 34.0516 106.311 34.0516C106.84 34.0516 107.222 33.9048 107.486 33.5818C107.75 33.2881 107.897 32.8771 107.897 32.3485V24.8316C107.897 21.1906 105.959 19.3701 102.112 19.3701C99.9983 19.3701 98.3833 19.7519 97.3263 20.4566C96.5922 20.9264 96.3573 21.5136 96.5922 22.189C96.7096 22.5413 96.9152 22.7469 97.2382 22.8643C97.5612 22.9818 97.9135 22.9818 98.2659 22.8643C98.4127 22.835 98.6476 22.7762 98.9706 22.6588L99.6753 22.4532C99.8221 22.3945 100.028 22.3358 100.263 22.2771C100.497 22.2183 100.762 22.189 100.997 22.1596C101.232 22.1596 101.466 22.1302 101.731 22.1302C102.905 22.1302 103.698 22.3945 104.109 22.923C104.52 23.4516 104.726 24.1563 104.726 25.0959V25.4189C103.904 25.3014 102.876 25.2133 101.643 25.2133C99.8221 25.2133 98.3246 25.6244 97.1207 26.3879C95.9168 27.1513 95.3296 28.3845 95.3296 30.0289C95.3296 31.3502 95.7407 32.4073 96.5628 33.1707C97.385 33.9635 98.5595 34.3452 100.028 34.3452C102.2 34.3452 103.757 33.523 104.726 31.82V32.3485ZM100.909 31.7613C100.174 31.7613 99.6166 31.5851 99.2055 31.2327C98.7944 30.8804 98.5889 30.3812 98.5889 29.7646C98.5889 28.1203 99.7634 27.2981 102.112 27.2981C103.228 27.2981 104.08 27.3568 104.726 27.4449V27.9441C104.726 28.9424 104.373 29.8527 103.698 30.6161C102.993 31.3796 102.083 31.7613 100.909 31.7613Z" fill="#2B415B"/>
<path d="M111.418 38.2211C111.418 38.7203 111.536 39.1314 111.829 39.4543C112.123 39.7773 112.534 39.9242 113.063 39.9242C113.591 39.9242 114.002 39.7773 114.296 39.4543C114.59 39.1314 114.736 38.7203 114.736 38.2211V22.3358H118.436V38.2211C118.436 38.7203 118.554 39.1314 118.847 39.4543C119.141 39.7773 119.552 39.9242 120.08 39.9242C120.609 39.9242 121.02 39.7773 121.314 39.4543C121.607 39.1314 121.754 38.7203 121.754 38.2211V22.3358H124.132C125.19 22.3358 125.718 21.8953 125.718 20.9851C125.718 20.1042 125.19 19.6638 124.132 19.6638H121.754V18.6067C121.754 17.0798 122.341 16.3164 123.516 16.3164C123.956 16.3164 124.573 16.4338 125.395 16.6688C126.335 16.9624 126.951 16.7275 127.245 15.9347C127.539 15.0832 127.157 14.4372 126.159 13.9674C125.454 13.6737 124.544 13.4976 123.369 13.4976C122.077 13.4976 121.049 13.8206 120.286 14.4078C119.288 13.8206 118.113 13.4976 116.762 13.4976C115.001 13.4976 113.65 13.9967 112.769 14.9363C111.859 15.9053 111.418 17.4615 111.418 19.605V38.2211ZM118.436 19.6638H114.736V18.8122C114.736 17.9901 114.883 17.3441 115.177 16.8743C115.47 16.4045 116.028 16.1696 116.821 16.1696C117.467 16.1696 118.142 16.3164 118.818 16.5807C118.554 17.3441 118.436 18.3718 118.436 19.6638Z" fill="#2B415B"/>
<path d="M128.279 32.3485C128.279 32.8477 128.397 33.2588 128.69 33.5818C128.984 33.9048 129.395 34.0516 129.923 34.0516C130.452 34.0516 130.863 33.9048 131.157 33.5818C131.45 33.2588 131.597 32.8477 131.597 32.3485V21.3668C131.597 20.897 131.45 20.4859 131.157 20.1629C130.863 19.8399 130.452 19.6638 129.923 19.6638C129.395 19.6638 128.984 19.8399 128.69 20.1629C128.397 20.4859 128.279 20.897 128.279 21.3668V32.3485ZM128.015 15.876C128.015 16.4632 128.162 16.933 128.514 17.2266C128.866 17.5203 129.336 17.6671 129.923 17.6671C130.511 17.6671 130.98 17.5203 131.333 17.1973C131.685 16.9037 131.861 16.4632 131.861 15.876C131.861 15.3474 131.685 14.907 131.333 14.584C130.98 14.261 130.511 14.0848 129.923 14.0848C129.336 14.0848 128.866 14.261 128.514 14.584C128.162 14.907 128.015 15.3474 128.015 15.876Z" fill="#2B415B"/>
<path d="M145.703 32.9945C146.525 32.3192 146.731 31.6145 146.29 30.851C145.879 30.205 145.233 30.117 144.294 30.5574C143.178 31.1153 142.238 31.3796 141.475 31.3796C140.359 31.3796 139.478 30.9978 138.803 30.205C138.127 29.4416 137.804 28.3552 137.804 26.9751C137.804 25.5363 138.127 24.3912 138.773 23.569C139.419 22.7469 140.3 22.3358 141.445 22.3358C142.091 22.3358 142.943 22.4826 143.941 22.7762C144.881 23.0699 145.527 22.8643 145.879 22.1596C146.232 21.3962 145.967 20.7208 145.145 20.1923C144.264 19.6638 143.002 19.3701 141.357 19.3701C139.184 19.3701 137.481 20.0748 136.248 21.4255C135.015 22.7762 134.398 24.6261 134.398 26.9751C134.398 29.3242 134.986 31.1153 136.189 32.4073C137.364 33.6992 139.038 34.3452 141.152 34.3452C143.031 34.3452 144.558 33.9048 145.703 32.9945Z" fill="#2B415B"/>
<path d="M155.721 29.5297C155.721 32.7596 157.189 34.3452 160.155 34.3452C161.388 34.3452 162.357 34.1397 163.12 33.6992C164.06 33.1707 164.383 32.4953 164.06 31.6145C163.913 31.2915 163.678 31.0859 163.326 30.9685C162.973 30.8804 162.621 30.9097 162.269 31.0566C161.681 31.2915 161.182 31.4089 160.712 31.4089C160.096 31.4089 159.655 31.2327 159.42 30.851C159.156 30.4987 159.039 29.882 159.039 29.0599V15.4942C159.039 15.0244 158.892 14.6133 158.598 14.2904C158.305 13.9674 157.894 13.7912 157.365 13.7912C156.837 13.7912 156.425 13.9674 156.132 14.2904C155.838 14.6133 155.721 15.0244 155.721 15.4942V29.5297Z" fill="#2B415B"/>
<path d="M165.614 32.3485C165.614 32.8477 165.731 33.2588 166.025 33.5818C166.318 33.9048 166.729 34.0516 167.258 34.0516C167.786 34.0516 168.197 33.9048 168.491 33.5818C168.785 33.2588 168.932 32.8477 168.932 32.3485V21.3668C168.932 20.897 168.785 20.4859 168.491 20.1629C168.197 19.8399 167.786 19.6638 167.258 19.6638C166.729 19.6638 166.318 19.8399 166.025 20.1629C165.731 20.4859 165.614 20.897 165.614 21.3668V32.3485ZM165.349 15.876C165.349 16.4632 165.496 16.933 165.848 17.2266C166.201 17.5203 166.671 17.6671 167.258 17.6671C167.845 17.6671 168.315 17.5203 168.667 17.1973C169.02 16.9037 169.196 16.4632 169.196 15.876C169.196 15.3474 169.02 14.907 168.667 14.584C168.315 14.261 167.845 14.0848 167.258 14.0848C166.671 14.0848 166.201 14.261 165.848 14.584C165.496 14.907 165.349 15.3474 165.349 15.876Z" fill="#2B415B"/>
<path d="M172.173 24.3325C172.173 25.7125 172.584 26.8283 173.465 27.6798C172.408 28.5607 171.88 29.5003 171.88 30.4987C171.88 31.5557 172.32 32.3192 173.26 32.8183C171.85 33.6405 171.145 34.7269 171.145 36.0776C171.145 37.2521 171.645 38.2505 172.672 39.0433C173.671 39.8361 175.374 40.2178 177.752 40.2178C180.101 40.2178 181.922 39.7773 183.214 38.8377C184.476 37.8981 185.122 36.6942 185.122 35.1967C185.122 33.9048 184.564 32.9945 183.507 32.4366C182.45 31.8787 180.923 31.5557 178.956 31.4676C177.253 31.4089 176.078 31.2327 175.432 30.9978C174.786 30.7629 174.463 30.4399 174.463 29.9995C174.463 29.5297 174.728 29.148 175.256 28.7956C176.049 29.0892 176.989 29.2361 178.046 29.2361C179.925 29.2361 181.364 28.7956 182.391 27.8854C183.419 27.0045 183.948 25.8006 183.948 24.3325C183.948 23.569 183.742 22.7762 183.36 21.9834H184.388C185.269 21.9834 185.739 21.6017 185.739 20.8383C185.739 20.0748 185.269 19.6638 184.388 19.6638H180.336C179.573 19.4876 178.809 19.3701 178.046 19.3701C176.167 19.3701 174.698 19.8399 173.7 20.7208C172.672 21.6311 172.173 22.835 172.173 24.3325ZM178.016 33.9341C179.485 34.0516 180.483 34.1984 181.07 34.4039C181.657 34.6388 181.951 34.9912 181.951 35.461C181.951 36.107 181.599 36.6355 180.894 37.0466C180.189 37.4577 179.132 37.6632 177.723 37.6632C176.489 37.6632 175.579 37.487 174.992 37.1053C174.405 36.7236 174.14 36.2538 174.14 35.6959C174.14 34.8444 174.669 34.169 175.726 33.6699C176.401 33.7873 177.165 33.8754 178.016 33.9341ZM175.139 24.3325C175.139 23.6278 175.374 23.0405 175.902 22.5707C176.431 22.1302 177.135 21.8953 178.046 21.8953C178.927 21.8953 179.631 22.1302 180.16 22.5707C180.688 23.0405 180.953 23.6278 180.953 24.3325C180.953 25.0665 180.688 25.6538 180.16 26.0649C179.631 26.5053 178.927 26.7109 178.046 26.7109C177.135 26.7109 176.431 26.5053 175.902 26.0649C175.374 25.6538 175.139 25.0665 175.139 24.3325Z" fill="#2B415B"/>
<path d="M187.521 32.3485C187.521 32.8477 187.638 33.2588 187.932 33.5818C188.226 33.9048 188.637 34.0516 189.165 34.0516C189.694 34.0516 190.105 33.9048 190.399 33.5818C190.692 33.2588 190.839 32.8477 190.839 32.3485V28.5607C190.839 27.6798 190.898 26.887 191.015 26.1823C191.133 25.507 191.309 24.861 191.544 24.2444C191.779 23.6278 192.16 23.1579 192.63 22.8056C193.1 22.4826 193.687 22.3064 194.392 22.3064C196.036 22.3064 196.888 23.4222 196.888 25.5951V32.3485C196.888 32.8477 197.005 33.2588 197.299 33.5818C197.592 33.9048 198.004 34.0516 198.532 34.0516C199.061 34.0516 199.472 33.9048 199.765 33.5818C200.059 33.2588 200.206 32.8477 200.206 32.3485V25.6538C200.206 23.5984 199.824 22.0128 199.061 20.9557C198.297 19.8987 197.005 19.3701 195.185 19.3701C194.245 19.3701 193.394 19.5757 192.63 19.9868C191.867 20.3978 191.25 21.0145 190.839 21.8073V15.4942C190.839 15.0244 190.692 14.6133 190.399 14.2904C190.105 13.9674 189.694 13.7912 189.165 13.7912C188.637 13.7912 188.226 13.9674 187.932 14.2904C187.638 14.6133 187.521 15.0244 187.521 15.4942V32.3485Z" fill="#2B415B"/>
<path d="M203.722 29.3829C203.722 32.7009 205.19 34.3452 208.185 34.3452C209.36 34.3452 210.329 34.1397 211.122 33.6699C212.061 33.1413 212.355 32.4366 212.032 31.6145C211.885 31.2915 211.65 31.0859 211.327 30.9685C210.975 30.8804 210.622 30.9097 210.27 31.0566C209.683 31.2915 209.184 31.4089 208.714 31.4089C208.097 31.4089 207.657 31.2327 207.422 30.851C207.158 30.4987 207.04 29.882 207.04 29.0305V22.4826H209.536C210.593 22.4826 211.122 22.0128 211.122 21.0732C211.122 20.1336 210.593 19.6638 209.536 19.6638H207.04V17.8433C207.04 17.3735 206.893 16.9624 206.6 16.6394C206.306 16.3164 205.895 16.1402 205.367 16.1402C204.838 16.1402 204.427 16.3164 204.133 16.6394C203.84 16.9624 203.722 17.3735 203.722 17.8433V29.3829Z" fill="#2B415B"/>
<circle cx="25.8393" cy="25.8393" r="25.8393" fill="url(#paint0_linear)"/>
<path d="M22.3202 13.5068C22.9327 13.5068 23.141 14.3201 22.6033 14.612L13.808 19.3883C13.4141 19.6022 12.9338 19.3183 12.9338 18.8716V14.0954C12.9338 13.7703 13.1985 13.5068 13.5249 13.5068H22.3202Z" fill="white"/>
<path d="M18.6705 26.2577C18.6705 25.6076 18.1411 25.0806 17.4882 25.0806H14.1039C12.8869 25.0806 12.4638 23.4706 13.5249 22.8772L24.9667 16.479C25.3263 16.278 25.7651 16.278 26.1247 16.479L37.5665 22.8772C38.6276 23.4706 38.2045 25.0806 36.9875 25.0806H33.6763C33.0233 25.0806 32.494 25.6076 32.494 26.2577V39.3436C32.494 39.9937 31.9647 40.5207 31.3117 40.5207H19.8528C19.1998 40.5207 18.6705 39.9937 18.6705 39.3436V26.2577Z" fill="white"/>
<path d="M38.1576 18.8489C38.1576 19.3008 37.6673 19.5841 37.2732 19.3599L28.9176 14.6064C28.3913 14.3069 28.6048 13.5068 29.2109 13.5068H37.5665C37.8929 13.5068 38.1576 13.7703 38.1576 14.0954V18.8489Z" fill="white"/>
<defs>
<linearGradient id="paint0_linear" x1="20.7791" y1="-7.85516" x2="42.9298" y2="54.2652" gradientUnits="userSpaceOnUse">
<stop offset="0.287293" stop-color="#49D8BD"/>
<stop offset="1" stop-color="#3793FF"/>
</linearGradient>
</defs>
</svg>
